INFO:root:initializing
INFO:root:starting calculations
INFO:root:Scanning frequency dependence
INFO:root:initializing
INFO:root:starting calculations
INFO:root:Scanning frequency dependence
INFO:root:initializing
INFO:root:starting calculations
INFO:root:Scanning frequency dependence
INFO:root:initializing
INFO:root:starting calculations
INFO:root:Scanning frequency dependence
DEBUG:root:\Gamma_B = 20.0
DEBUG:root:amp = -4.736272455217551e-13 +/- 1.862772562490085e-14, gamma = 7.915566769498514 +/ 1.9361276070531474e-16
 : cannot connect to X server :0
DEBUG:root:\Gamma_B = 20.0
DEBUG:root:amp = -4.736272455217551e-13 +/- 1.862772562490085e-14, gamma = 7.915566769498514 +/ 1.9361276070531474e-16
 : cannot connect to X server :0
INFO:root:initializing
INFO:root:starting calculations
INFO:root:Scanning frequency dependence
DEBUG:root:\Gamma_B = 20.0
DEBUG:root:amp = -4.736272455217551e-13 +/- 1.862772562490085e-14, gamma = 7.915566769498514 +/ 1.9361276070531474e-16
 : cannot connect to X server :0
INFO:root:initializing
INFO:root:starting calculations
INFO:root:Scanning frequency dependence
INFO:root:initializing
INFO:root:starting calculations
INFO:root:Scanning frequency dependence
DEBUG:root:\Gamma_B = 20.0
DEBUG:root:amp = -1.578757485072517e-13 +/- 1.0340828839990632e-14, gamma = 8.608713950058458 +/ 2.149609093463744e-16
 : cannot connect to X server :0
INFO:root:initializing
INFO:root:starting calculations
INFO:root:Scanning frequency dependence
INFO:root:initializing
INFO:root:starting calculations
INFO:root:Scanning frequency dependence
INFO:root:initializing
INFO:root:starting calculations
INFO:root:Scanning frequency dependence
DEBUG:root:\Gamma_B = 20.0
DEBUG:root:amp = -7.893787425362586e-14 +/- 7.0218925762547856e-15, gamma = 9.301861130618404 +/ 2.9193644665830323e-16
 : cannot connect to X server :0
INFO:root:initializing
INFO:root:starting calculations
INFO:root:Scanning frequency dependence
DEBUG:root:\Gamma_B = 20.0
DEBUG:root:amp = -7.893787425362586e-14 +/- 3.379708481378315e-15, gamma = 9.995008311178347 +/ 2.8102397582412546e-16
 : cannot connect to X server :0
