INFO:root:initializing
INFO:root:starting calculations
INFO:root:Scanning frequency dependence
INFO:root:initializing
INFO:root:starting calculations
INFO:root:Scanning frequency dependence
DEBUG:root:\Gamma_B = 20.0
DEBUG:root:amp = -9.209418662923014e-13 +/- 4.850554245016123e-14, gamma = 6.711593965172578 +/ 1.5124699878653931e-16
 : cannot connect to X server :0
INFO:root:initializing
INFO:root:starting calculations
INFO:root:Scanning frequency dependence
DEBUG:root:\Gamma_B = 20.0
DEBUG:root:amp = -9.209418662923014e-13 +/- 4.850554245016123e-14, gamma = 6.711593965172578 +/ 1.5124699878653931e-16
 : cannot connect to X server :0
INFO:root:initializing
INFO:root:starting calculations
INFO:root:Scanning frequency dependence
DEBUG:root:\Gamma_B = 20.0
DEBUG:root:amp = -9.209418662923014e-13 +/- 4.850554245016123e-14, gamma = 6.711593965172578 +/ 1.5124699878653931e-16
 : cannot connect to X server :0
INFO:root:initializing
INFO:root:starting calculations
INFO:root:Scanning frequency dependence
DEBUG:root:\Gamma_B = 20.0
DEBUG:root:amp = -2.631262475120861e-13 +/- 1.4067039200340054e-14, gamma = 7.404741145732526 +/ 8.772595268056676e-17
 : cannot connect to X server :0
INFO:root:initializing
INFO:root:starting calculations
INFO:root:Scanning frequency dependence
INFO:root:initializing
INFO:root:starting calculations
INFO:root:Scanning frequency dependence
DEBUG:root:\Gamma_B = 20.0
DEBUG:root:amp = -6.578156187802153e-14 +/- 1.6081453177452765e-14, gamma = 8.09788832629247 +/ 2.005767923709017e-16
 : cannot connect to X server :0
INFO:root:initializing
INFO:root:starting calculations
INFO:root:Scanning frequency dependence
INFO:root:initializing
INFO:root:starting calculations
INFO:root:Scanning frequency dependence
DEBUG:root:\Gamma_B = 20.0
DEBUG:root:amp = -9.86723428170323e-14 +/- 1.0216979391773909e-14, gamma = 8.791035506852413 +/ 2.548636533662085e-16
 : cannot connect to X server :0
INFO:root:initializing
INFO:root:starting calculations
INFO:root:Scanning frequency dependence
INFO:root:initializing
INFO:root:starting calculations
INFO:root:Scanning frequency dependence
DEBUG:root:\Gamma_B = 20.0
DEBUG:root:amp = -6.578156187802153e-14 +/- 3.4734692143859315e-15, gamma = 9.484182687412359 +/ 1.7329212869827477e-16
 : cannot connect to X server :0
DEBUG:root:\Gamma_B = 20.0
DEBUG:root:amp = -8.22269523475269e-15 +/- 1.0604474449767477e-15, gamma = 10.177329867972306 +/ 1.0581190375982941e-16
 : cannot connect to X server :0
DEBUG:root:\Gamma_B = 20.0
DEBUG:root:amp = -2.0556738086881726e-14 +/- 1.3067057491888274e-15, gamma = 10.870477048532248 +/ 2.6076732728346703e-16
 : cannot connect to X server :0
DEBUG:root:\Gamma_B = 20.0
DEBUG:root:amp = -2.0556738086881727e-15 +/- 1.4357897663993557e-15, gamma = 11.563624229092193 +/ 5.730548903719703e-16
 : cannot connect to X server :0
DEBUG:root:\Gamma_B = 20.0
DEBUG:root:amp = 6.355986085530376 +/- 0.30140719253665454, gamma = 14.617103827627822 +/ 0.24059631809407142
 : cannot connect to X server :0
