Process Process-1:
Traceback (most recent call last):
  File "/state/partition1/apps/local/python_anaconda/lib/python3.4/multiprocessing/process.py", line 254, in _bootstrap
    self.run()
  File "/state/partition1/apps/local/python_anaconda/lib/python3.4/multiprocessing/process.py", line 93, in run
    self._target(*self._args, **self._kwargs)
  File "./frequency-dependence-of-system-bath-coupling/plotPointsMP.py", line 38, in worker
    updateMass(n)
  File "./frequency-dependence-of-system-bath-coupling/plotPointsMP.py", line 92, in updateMass
    with open('.'.join((iniFilePath, "bak")), mode='r') as inFile:
FileNotFoundError: [Errno 2] No such file or directory: '../resources/FrequencyDependenceOfSystemBathCoupling.bak'
Process Process-2:
Traceback (most recent call last):
  File "/state/partition1/apps/local/python_anaconda/lib/python3.4/multiprocessing/process.py", line 254, in _bootstrap
    self.run()
  File "/state/partition1/apps/local/python_anaconda/lib/python3.4/multiprocessing/process.py", line 93, in run
    self._target(*self._args, **self._kwargs)
  File "./frequency-dependence-of-system-bath-coupling/plotPointsMP.py", line 38, in worker
    updateMass(n)
  File "./frequency-dependence-of-system-bath-coupling/plotPointsMP.py", line 82, in updateMass
    sleep(n)
KeyboardInterrupt
Traceback (most recent call last):
  File "./frequency-dependence-of-system-bath-coupling/plotPointsMP.py", line 114, in <module>
    main()
  File "./frequency-dependence-of-system-bath-coupling/plotPointsMP.py", line 109, in main
    dictResults = mp_runner(nprocs, nprocs)
  File "./frequency-dependence-of-system-bath-coupling/plotPointsMP.py", line 57, in mp_runner
    sleep(i)
KeyboardInterrupt
